<svg width="60" height="60" viewBox="0 0 60 60" fill="none" xmlns="http://www.w3.org/2000/svg">
<path d="M31.4691 7.50636e-05C31.355 0.000593319 31.2425 0.0264508 31.1404 0.0756441C31.0383 0.124837 30.9493 0.196042 30.8804 0.283729C30.7963 0.391789 26.9696 4.02528 26.9696 4.02528L22.358 2.13425C22.1809 2.06533 21.9831 2.06477 21.8056 2.13268C21.6281 2.20059 21.4846 2.33175 21.4048 2.49894L19.4144 6.9699H14.0318C13.8421 6.97677 13.6623 7.05339 13.5293 7.18401C13.3964 7.31464 13.3204 7.48935 13.3169 7.67228V12.7781L8.67727 14.6961C8.50965 14.7753 8.37908 14.9123 8.31156 15.08C8.24403 15.2477 8.24448 15.4338 8.31283 15.6011L10.2892 20.0586L6.28034 23.9082C6.13996 24.0448 6.06121 24.2292 6.06121 24.4215C6.06121 24.6137 6.13996 24.7982 6.28034 24.9348L10.2192 28.0955L8.21471 33.2283C8.15869 33.3976 8.16749 33.5806 8.2395 33.7441C8.3115 33.9077 8.44195 34.041 8.60718 34.1198L13.2469 36.0379V39.5498C13.2469 39.5498 6.23829 51.0851 6.09812 51.3012C6.03627 51.399 6.00242 51.5109 6 51.6254C6 51.7176 6.01885 51.809 6.05548 51.8942C6.09211 51.9794 6.1458 52.0568 6.21349 52.1221C6.28117 52.1873 6.36152 52.239 6.44996 52.2743C6.53839 52.3096 6.63317 52.3278 6.72889 52.3278H15.7559L20.5918 59.6758C20.6606 59.7731 20.7524 59.8532 20.8597 59.9095C20.9669 59.9659 21.0865 59.9969 21.2086 60C21.3225 59.9985 21.4347 59.9722 21.5366 59.9231C21.6386 59.874 21.7277 59.8033 21.7973 59.7163C21.8814 59.5948 29.4226 47.0194 29.4226 47.0194L30.8243 48.5727C30.8925 48.6517 30.9784 48.7146 31.0755 48.7567C31.1727 48.7988 31.2785 48.8191 31.385 48.8159C31.4936 48.8192 31.6015 48.799 31.7009 48.757C31.8003 48.7149 31.8888 48.652 31.9597 48.5727L33.3614 47.0194C33.3614 47.0194 40.9026 59.5948 40.9867 59.7163C41.0577 59.8019 41.1471 59.8715 41.2488 59.9205C41.3504 59.9695 41.4619 59.9966 41.5755 60C41.6983 60.0004 41.8192 59.9709 41.927 59.9142C42.0349 59.8576 42.1261 59.7756 42.1922 59.6758L47.0281 52.3278H56.0832C56.1789 52.3278 56.2737 52.3096 56.3621 52.2743C56.4506 52.239 56.5309 52.1873 56.5986 52.1221C56.6663 52.0568 56.72 51.9794 56.7566 51.8942C56.7932 51.809 56.8121 51.7176 56.8121 51.6254C56.8073 51.5129 56.7787 51.4026 56.728 51.3012L49.5792 39.5498V36.0379L54.2049 34.1198C54.3743 34.0456 54.5086 33.9128 54.5813 33.7477C54.654 33.5826 54.6597 33.3973 54.5974 33.2283L52.6069 28.0955L56.5458 24.9348C56.6927 24.8054 56.782 24.6264 56.795 24.4351C56.8081 24.2437 56.7439 24.055 56.6158 23.9082L52.6069 20.0586L54.5693 15.6011C54.6412 15.4341 54.6434 15.2468 54.5755 15.0782C54.5076 14.9096 54.3749 14.7728 54.2049 14.6961L49.5792 12.7781V7.67228C49.5723 7.48814 49.4933 7.31335 49.358 7.18305C49.2228 7.05275 49.0415 6.9766 48.8504 6.9699H43.5379L41.5334 2.49894C41.4564 2.33274 41.3155 2.20184 41.1403 2.13381C40.9651 2.06577 40.7693 2.06593 40.5943 2.13425L35.9686 4.02528C35.9686 4.02528 32.1419 0.391789 32.0578 0.283729C31.9905 0.194456 31.9018 0.122089 31.7994 0.0727251C31.6969 0.0233609 31.5837 -0.00155421 31.4691 7.50636e-05ZM31.4691 1.67499L35.2958 5.36252C35.3997 5.46378 35.5331 5.53222 35.6783 5.55876C35.8235 5.58529 35.9736 5.56867 36.1088 5.5111L40.5242 3.70111L42.4025 7.92893C42.4554 8.05586 42.5462 8.16475 42.6636 8.24173C42.7809 8.3187 42.9193 8.36028 43.0613 8.36116H48.1215V13.2508C48.1247 13.3853 48.1672 13.5162 48.244 13.6285C48.3209 13.7408 48.429 13.8299 48.556 13.8857L52.9714 15.7092L51.0931 19.9505C51.0341 20.0745 51.0145 20.2125 51.037 20.3472C51.0594 20.4818 51.1229 20.607 51.2192 20.7069L55.0319 24.3674L51.2893 27.3526C51.1743 27.4491 51.0916 27.5764 51.0517 27.7183C51.0118 27.8601 51.0164 28.0102 51.0651 28.1495L52.9854 33.0392L48.556 34.9302C48.4269 34.987 48.3173 35.0783 48.2403 35.1932C48.1633 35.3081 48.122 35.4418 48.1215 35.5786V40.4683H43.0613C42.9229 40.4686 42.7874 40.5069 42.6708 40.5786C42.5541 40.6504 42.461 40.7527 42.4025 40.8735L40.4962 45.1959L35.3378 43.2913C35.1965 43.2458 35.0445 43.2407 34.9002 43.2766C34.7559 43.3126 34.6255 43.3881 34.5249 43.4939L31.4691 47.0194L28.4134 43.4939C28.3127 43.3881 28.1823 43.3126 28.038 43.2766C27.8937 43.2407 27.7417 43.2458 27.6004 43.2913L22.4421 45.1959L20.5498 40.8735C20.4899 40.7536 20.3965 40.6522 20.2801 40.5807C20.1638 40.5091 20.029 40.4702 19.891 40.4683H14.8168V35.5786C14.8198 35.4411 14.78 35.3058 14.7026 35.1903C14.6251 35.0747 14.5136 34.9842 14.3822 34.9302L9.95283 33.0392L11.8732 28.0955C11.9258 27.9566 11.9324 27.8054 11.8923 27.6627C11.8521 27.52 11.7671 27.3928 11.6489 27.2986L7.92034 24.3134L11.719 20.6529C11.8145 20.5527 11.8785 20.4283 11.9033 20.2944C11.9281 20.1604 11.9128 20.0224 11.8592 19.8965L9.98086 15.6552L14.3822 13.8317C14.5092 13.7759 14.6174 13.6867 14.6942 13.5744C14.7711 13.4622 14.8135 13.3313 14.8168 13.1968V8.36116H19.891C20.0325 8.35853 20.1701 8.31625 20.2871 8.2395C20.4041 8.16274 20.4954 8.05483 20.5498 7.92893L22.4421 3.70111L26.8575 5.5111C26.9927 5.56867 27.1428 5.58529 27.288 5.55876C27.4332 5.53222 27.5666 5.46378 27.6705 5.36252L31.4691 1.67499ZM13.7375 41.765C13.8414 41.8305 13.9638 41.8636 14.0879 41.8595H19.4284L21.4048 46.3035C21.4789 46.4631 21.6111 46.591 21.7763 46.6632C21.9416 46.7353 22.1285 46.7467 22.3019 46.6952L27.6284 44.7771L28.5536 45.8713L21.3067 57.9469L16.8773 51.1932C16.807 51.0984 16.7145 51.0209 16.6074 50.967C16.5002 50.913 16.3814 50.8841 16.2605 50.8825H8.11659L13.7375 41.765ZM49.2148 41.765L54.8216 50.923H46.6777C46.5568 50.9246 46.438 50.9535 46.3309 51.0075C46.2237 51.0614 46.1313 51.1389 46.0609 51.2337L41.6315 57.9874L34.3847 45.8713L35.3238 44.7771L40.6644 46.6952C40.8376 46.7499 41.0259 46.74 41.1919 46.6674C41.358 46.5949 41.4899 46.4651 41.5614 46.3035L43.4678 41.8595H48.8083C48.9508 41.8704 49.0932 41.8373 49.2148 41.765Z" fill="#439F35"/>
</svg>
