<svg width="20" height="20" viewBox="0 0 20 20" fill="none" xmlns="http://www.w3.org/2000/svg">
<path d="M3.96049 8.44977H13.5072L13.499 9.11968H0.075V8.44977H3.03874H3.10085L3.11243 8.38876C4.01749 3.62099 8.08954 0.0750235 13.1678 0.075C15.6372 0.0766682 18.0193 0.948455 19.8662 2.52395L19.3614 3.05904C17.6512 1.60556 15.449 0.803191 13.1679 0.803473C8.54263 0.803473 4.80581 4.02136 3.88712 8.35924L3.86795 8.44977H3.96049ZM3.03874 11.4916H0.075V10.8217H13.4981V11.5111H3.95037H3.86084L3.87652 11.5992C4.25321 13.7164 5.39113 15.6377 7.09006 17.0266C8.78893 18.4154 10.9405 19.1834 13.1674 19.1964C15.4395 19.2092 17.6365 18.4165 19.3411 16.9701L19.8459 17.5052C18.0048 19.0734 15.6282 19.9355 13.1682 19.9249H13.1679C8.06959 19.9249 3.99748 16.35 3.1125 11.553L3.10117 11.4916H3.03874Z" fill="#010202" stroke="white" stroke-width="0.15"/>
</svg>
