<svg width="71" height="36" viewBox="0 0 71 36" fill="none" xmlns="http://www.w3.org/2000/svg">
<path fill-rule="evenodd" clip-rule="evenodd" d="M70.7696 18.2853L55.9611 34.8144C55.6031 35.2056 54.9885 35.2094 54.645 34.86C54.2943 34.503 54.269 33.8497 54.6016 33.4775L67.9349 18.5896H1.58507C1.0753 18.5896 0.659531 18.1528 0.659531 17.6173C0.659531 17.0818 1.0753 16.645 1.58507 16.645H67.9349L54.6016 1.75715C54.269 1.38494 54.2871 0.724078 54.645 0.374633C54.9993 0.0252081 55.5742 0.0176143 55.9611 0.420215L70.7696 16.9493C71.1203 17.4051 71.0299 17.9625 70.7696 18.2853Z" fill="#010202"/>
</svg>
